%!PS-Adobe-3.0 EPSF-3.0
%%Creator: PS_dot.c,v 1.38 2007/02/02 15:18:13 ivo Exp $, ViennaRNA-1.8.2
%%CreationDate: Thu Apr 11 11:08:14 2013
%%Title: RNA Secondary Structure Plot
%%BoundingBox: 66 210 518 662
%%DocumentFonts: Helvetica
%%Pages: 1
%%EndComments

%Options: 
% to switch off outline pairs of sequence comment or
% delete the appropriate line near the end of the file

%%BeginProlog
/RNAplot 100 dict def
RNAplot begin
/fsize  14 def
/outlinecolor {0.2 setgray} bind def
/paircolor    {0.2 setgray} bind def
/seqcolor     {0   setgray} bind def
/cshow  { dup stringwidth pop -2 div fsize -3 div rmoveto show} bind def
/min { 2 copy gt { exch } if pop } bind def
/max { 2 copy lt { exch } if pop } bind def
/drawoutline {
  gsave outlinecolor newpath
  coor 0 get aload pop 0.8 0 360 arc % draw 5' circle of 1st sequence
  currentdict /cutpoint known        % check if cutpoint is defined
  {coor 0 cutpoint getinterval
   {aload pop lineto} forall         % draw outline of 1st sequence
   coor cutpoint get aload pop
   2 copy moveto 0.8 0 360 arc       % draw 5' circle of 2nd sequence
   coor cutpoint coor length cutpoint sub getinterval
   {aload pop lineto} forall}        % draw outline of 2nd sequence
  {coor {aload pop lineto} forall}   % draw outline as a whole
  ifelse
  stroke grestore
} bind def
/drawpairs {
  paircolor
  0.7 setlinewidth
  [9 3.01] 9 setdash
  newpath
  pairs {aload pop
     coor exch 1 sub get aload pop moveto
     coor exch 1 sub get aload pop lineto
  } forall
  stroke
} bind def
% draw bases
/drawbases {
  [] 0 setdash
  seqcolor
  0
  coor {
    aload pop moveto
    dup sequence exch 1 getinterval cshow
    1 add
  } forall
  pop
} bind def

/init {
  /Helvetica findfont fsize scalefont setfont
  1 setlinejoin
  1 setlinecap
  0.8 setlinewidth
  72 216 translate
  % find the coordinate range
  /xmax -1000 def /xmin 10000 def
  /ymax -1000 def /ymin 10000 def
  coor {
      aload pop
      dup ymin lt {dup /ymin exch def} if
      dup ymax gt {/ymax exch def} {pop} ifelse
      dup xmin lt {dup /xmin exch def} if
      dup xmax gt {/xmax exch def} {pop} ifelse
  } forall
  /size {xmax xmin sub ymax ymin sub max} bind def
  72 6 mul size div dup scale
  size xmin sub xmax sub 2 div size ymin sub ymax sub 2 div
  translate
} bind def
end
%%EndProlog
RNAplot begin
% data start here
/sequence (\
GCCCUUCCUCUAGCCCAACUAACACCUCAUCCACUACCAUAAACAACUCACCACCAUACCCAAUCAAAACAUUCUAACUCCGUCCCAGUAUAGGUGAUAGAAAAGACCUCAGGCGCAAUAGAGACCACCCGUACCGUAAGGGAAAGAUGAAAUAACAAUGAAAACUAUUAAGCCAAAAGUAGUAAAGACUAACCCUUGUACCUUUUGCAUCAUGAUUUAGCAAGAACAACCAAGCAAAGCGGACUAAAGUUUGCC\
CCCCCGAAACCCAAGCGAGCUACUUGCGAGCAGCUAAAAAUUUGAGCGAACCCGUCUCUGUCGCAAAAGAGUGGGAUGACUUGCCAGUAGAGGUGAAAAGCCAAUCGAGCUGGGUGAUAGCUGGUUACCUGCCAAAUGAAUUUAAGUUCUACUUUAACCCGCUUCAAAGGACACCAUAGCCCCGAACCACUAUACAUUGGGAUUAAAAGCAACUCGACGGAGGUACAGCUCCAUCGAAAAAGAACACAAUCUCCC\
CUAGCGGAUAAUAACUACUUUUCCCCUCCCCCGUAGGCCUUCAAGCAGCCAUCAACAAAGAAUGCGUCAAAGCUCACCCCACUAAAAAUCAUAAAUCCCAUUUGACUCCCUCAUCCAAAGCAGGUUAACCUAUGACAAUAGAAGAACUAAUGCUAAAAUAAGUAACUUGGGGCCCCCCUCAUCAGCGCAAACUUACGCCCACAAACUAUUAACAGACUCAACUUAUACUUCUACCUACCGCAAGAACACGUAUCU\
AACACAAGCCUGUUGAGACCAACUCCGGGAGCGCUCACAAGACGAUUAAAAUCCGCAGAAGGAACUCGGCAAACCAAAGACCCGACUGUUUCCCAAAAACAUAGCCUUCAGCCAAACCAACAAGUAUUGAAGGUGAUGCCUGCCCAGUGACCCAAAAUGUUCAACGGCCGCGGUAUCCUAACCGUGCAAAGGUAGCGCAAUCAAUUGUCUCGUAAAUUGAGACUUGUAUGAAAGGCUAAACGAGGUCUCAACUGU\
CUUCUGCUGAUAAUCAGUGAAAUUAGUAUUUUCGUGAAAAAACGAAAAUGUGUUCAUAAGACGAGAAGACCCUGUGGAACUUCAAAAUCAUCAACCACCCUCGCACUAACAUAACCCACCCCGGGCCUAACCCAUAAAACAACUGGUUGACAUUUUUCGGUUGGGGCGACCUUGGAGAAAAACAAACCCUCCAAACCCAUAGACCACAACUCUUUACUAAGACCCACUUCUCAAAGUACUAAUAGUAACCUAGAC\
CCAAUACAAUUGACCAAUGGACCAAGCUACCCCAGGGAUAACAGCGCAAUCUCCUUCAAGAGCCCAUAUCGACAAGGAGGUUUACGACCUCGAUGUUGGAUCAGGACAACCUAAUGGUGCAGCCGCUAUUAAGGGUUCGUUUGUUCAACGAUUAACAGUCCUACGUGAUCUGAGUUCAGACCGGAGUAAUCCAGGUCGGUUUCUAUCUAUGUAUGCACUCCUCCUAGUACGAAAGGACCGGAGAAGUAGGGUCAA\
UACCACCAGCACACCCUAACCCUCCAAGCAAUGAGCCCAACUCAAUCGCUAAGAGAACUCACCCACACCCCACUCCUAGAAAAGGACAU\
) def
/coor [
[110.266 289.145]
[108.539 304.045]
[106.812 318.946]
[105.085 333.846]
[103.358 348.746]
[101.632 363.646]
[99.905 378.547]
[98.178 393.447]
[96.451 408.347]
[94.724 423.247]
[92.997 438.148]
[91.270 453.048]
[89.543 467.948]
[87.816 482.848]
[86.089 497.749]
[84.362 512.649]
[82.635 527.549]
[80.908 542.449]
[79.181 557.350]
[77.454 572.250]
[75.727 587.150]
[74.000 602.050]
[72.273 616.951]
[70.546 631.851]
[68.820 646.751]
[67.093 661.651]
[65.366 676.552]
[63.639 691.452]
[61.912 706.352]
[60.185 721.253]
[51.239 733.293]
[45.285 719.526]
[47.011 704.625]
[48.738 689.725]
[50.465 674.825]
[52.192 659.924]
[53.919 645.024]
[55.646 630.124]
[57.373 615.224]
[59.100 600.323]
[60.827 585.423]
[62.554 570.523]
[64.281 555.623]
[66.008 540.722]
[67.735 525.822]
[69.462 510.922]
[71.189 496.022]
[72.916 481.121]
[74.643 466.221]
[76.370 451.321]
[78.097 436.421]
[79.823 421.520]
[81.550 406.620]
[83.277 391.720]
[85.004 376.820]
[86.731 361.919]
[88.458 347.019]
[90.185 332.119]
[91.912 317.219]
[93.639 302.318]
[95.366 287.418]
[97.093 272.518]
[98.820 257.618]
[100.547 242.717]
[102.274 227.817]
[94.824 226.954]
[90.829 241.412]
[95.472 257.140]
[83.978 268.837]
[68.171 264.470]
[64.312 248.531]
[76.371 237.417]
[80.365 222.959]
[73.241 220.614]
[68.551 234.862]
[63.860 249.109]
[59.170 263.357]
[44.922 258.666]
[49.613 244.419]
[54.303 230.171]
[58.994 215.923]
[51.870 213.578]
[46.494 227.582]
[46.358 236.571]
[41.095 241.607]
[51.452 252.765]
[55.919 267.254]
[53.661 282.185]
[45.180 294.604]
[32.201 302.078]
[17.326 303.171]
[11.923 317.164]
[17.079 332.356]
[8.295 345.781]
[-7.690 347.140]
[-18.615 335.391]
[-16.098 319.547]
[-2.070 311.761]
[3.332 297.768]
[-6.949 286.962]
[-11.538 272.706]
[-9.473 257.809]
[-1.111 245.236]
[11.934 237.508]
[27.101 236.205]
[32.491 222.206]
[37.866 208.202]
[31.112 204.941]
[24.589 218.448]
[18.066 231.955]
[11.543 245.463]
[5.020 258.970]
[-1.504 272.477]
[-8.027 285.985]
[-14.550 299.492]
[-21.073 312.999]
[-27.597 326.507]
[-34.120 340.014]
[-40.643 353.521]
[-47.167 367.028]
[-60.674 360.505]
[-54.150 346.998]
[-47.627 333.491]
[-41.104 319.983]
[-34.581 306.476]
[-28.057 292.969]
[-21.534 279.461]
[-15.011 265.954]
[-8.488 252.447]
[-1.965 238.939]
[4.559 225.432]
[11.082 211.925]
[17.605 198.418]
[10.851 195.156]
[3.226 208.073]
[3.608 224.468]
[-10.538 232.764]
[-24.660 224.427]
[-24.230 208.033]
[-9.691 200.447]
[-2.066 187.530]
[-8.095 183.069]
[-17.017 195.127]
[-25.939 207.185]
[-34.862 219.243]
[-43.784 231.301]
[-52.706 243.358]
[-61.629 255.416]
[-70.551 267.474]
[-79.473 279.532]
[-88.396 291.590]
[-97.318 303.648]
[-106.240 315.706]
[-115.163 327.763]
[-124.085 339.821]
[-133.007 351.879]
[-141.930 363.937]
[-150.852 375.995]
[-159.774 388.053]
[-168.697 400.111]
[-177.619 412.168]
[-186.541 424.226]
[-200.297 430.207]
[-198.599 415.304]
[-189.677 403.246]
[-180.755 391.188]
[-171.832 379.130]
[-162.910 367.072]
[-153.988 355.015]
[-145.065 342.957]
[-136.143 330.899]
[-127.220 318.841]
[-118.298 306.783]
[-109.376 294.725]
[-100.453 282.668]
[-91.531 270.610]
[-82.609 258.552]
[-73.686 246.494]
[-64.764 234.436]
[-55.842 222.378]
[-46.919 210.320]
[-37.997 198.263]
[-29.075 186.205]
[-20.152 174.147]
[-26.181 169.686]
[-36.304 180.755]
[-46.428 191.824]
[-44.192 207.301]
[-52.472 220.566]
[-67.358 225.357]
[-81.821 219.411]
[-89.032 205.535]
[-85.586 190.282]
[-73.111 180.853]
[-57.497 181.701]
[-47.373 170.632]
[-37.250 159.563]
[-39.781 152.502]
[-53.901 157.564]
[-68.021 162.626]
[-82.142 167.688]
[-96.262 172.750]
[-110.382 177.812]
[-124.502 182.874]
[-138.622 187.936]
[-152.742 192.998]
[-157.804 178.877]
[-143.684 173.816]
[-129.564 168.754]
[-115.444 163.692]
[-101.324 158.630]
[-87.203 153.568]
[-73.083 148.506]
[-58.963 143.444]
[-44.843 138.382]
[-47.374 131.322]
[-62.224 129.206]
[-77.074 127.090]
[-91.924 124.973]
[-106.774 122.857]
[-121.624 120.740]
[-136.474 118.624]
[-141.852 134.856]
[-150.811 149.579]
[-162.943 162.007]
[-177.671 171.463]
[-194.273 177.413]
[-211.921 179.496]
[-229.719 177.544]
[-246.750 171.599]
[-262.122 161.907]
[-274.223 170.771]
[-286.324 179.635]
[-298.425 188.498]
[-310.526 197.362]
[-312.927 214.758]
[-326.932 224.779]
[-343.505 221.566]
[-355.588 230.453]
[-361.672 245.682]
[-377.939 247.760]
[-387.655 234.549]
[-380.826 219.640]
[-364.476 218.369]
[-352.392 209.482]
[-352.272 196.680]
[-344.723 186.100]
[-332.290 181.694]
[-319.390 185.261]
[-307.289 176.397]
[-295.188 167.534]
[-283.087 158.670]
[-270.986 149.806]
[-274.475 143.167]
[-287.753 150.144]
[-294.731 136.866]
[-281.453 129.889]
[-284.942 123.250]
[-299.105 128.188]
[-303.993 146.844]
[-319.122 158.555]
[-338.101 158.609]
[-353.054 147.172]
[-367.189 152.192]
[-381.323 157.213]
[-395.458 162.234]
[-409.593 167.255]
[-416.511 172.995]
[-423.760 172.272]
[-437.905 177.265]
[-452.049 182.258]
[-451.231 197.375]
[-456.449 212.247]
[-467.356 224.470]
[-482.657 231.887]
[-500.250 232.957]
[-517.515 227.050]
[-531.509 232.452]
[-545.502 237.855]
[-555.589 250.043]
[-570.249 247.410]
[-584.242 252.812]
[-598.235 258.215]
[-612.229 263.618]
[-626.222 269.020]
[-640.210 274.436]
[-641.627 293.705]
[-662.869 307.563]
[-676.524 313.770]
[-690.179 319.977]
[-692.300 335.258]
[-702.363 346.952]
[-717.157 351.327]
[-731.961 346.987]
[-742.052 335.318]
[-744.209 320.042]
[-737.745 306.034]
[-724.721 297.765]
[-709.294 297.872]
[-696.387 306.322]
[-682.731 300.115]
[-669.076 293.907]
[-671.872 286.948]
[-686.722 284.832]
[-677.464 273.029]
[-680.260 266.070]
[-694.414 271.036]
[-708.568 276.002]
[-714.786 287.196]
[-726.568 291.086]
[-737.502 286.124]
[-751.666 291.062]
[-765.829 296.001]
[-779.993 300.939]
[-784.343 315.834]
[-796.638 325.301]
[-812.150 325.699]
[-824.914 316.876]
[-830.023 302.224]
[-825.512 287.377]
[-813.115 278.044]
[-797.600 277.814]
[-784.932 286.776]
[-770.768 281.837]
[-756.604 276.898]
[-742.440 271.960]
[-731.622 258.067]
[-713.534 261.848]
[-699.380 256.882]
[-685.226 251.916]
[-668.039 246.104]
[-653.302 250.415]
[-645.640 260.454]
[-640.613 255.181]
[-631.625 255.027]
[-617.631 249.624]
[-603.638 244.222]
[-589.645 238.819]
[-575.652 233.416]
[-566.565 221.614]
[-550.904 223.862]
[-536.911 218.459]
[-522.918 213.056]
[-525.041 205.863]
[-539.623 202.347]
[-529.287 191.477]
[-531.411 184.284]
[-546.095 187.345]
[-560.779 190.407]
[-570.736 202.986]
[-586.779 202.900]
[-596.601 190.215]
[-592.667 174.662]
[-577.995 168.171]
[-563.841 175.723]
[-549.156 172.661]
[-534.472 169.599]
[-525.554 157.527]
[-513.650 149.122]
[-500.125 145.014]
[-486.431 145.360]
[-473.954 149.853]
[-463.871 157.778]
[-457.042 168.114]
[-442.898 163.121]
[-428.753 158.127]
[-414.614 153.120]
[-400.479 148.099]
[-386.344 143.078]
[-372.210 138.058]
[-358.075 133.037]
[-357.036 122.169]
[-352.052 112.398]
[-343.788 105.110]
[-333.374 101.353]
[-322.259 101.689]
[-311.998 106.107]
[-304.044 114.024]
[-289.880 109.086]
[-288.383 98.231]
[-285.459 87.935]
[-281.231 78.378]
[-295.039 72.518]
[-308.847 66.657]
[-322.654 60.796]
[-336.462 54.935]
[-350.269 49.074]
[-353.396 67.563]
[-364.134 85.884]
[-382.451 101.074]
[-407.220 110.241]
[-436.276 110.949]
[-466.607 101.571]
[-481.602 101.949]
[-496.597 102.327]
[-511.593 102.705]
[-525.294 111.717]
[-539.825 104.117]
[-540.239 87.723]
[-526.109 79.400]
[-511.971 87.710]
[-496.976 87.332]
[-481.980 86.954]
[-466.985 86.576]
[-466.643 79.083]
[-479.279 71.000]
[-465.960 64.099]
[-465.618 56.607]
[-480.517 54.865]
[-495.416 53.124]
[-510.314 51.383]
[-525.213 49.641]
[-539.818 55.724]
[-551.561 46.562]
[-566.459 44.820]
[-581.360 43.093]
[-595.953 49.204]
[-607.714 40.065]
[-620.018 49.617]
[-635.106 47.668]
[-644.137 35.879]
[-658.730 41.990]
[-670.491 32.850]
[-685.393 31.138]
[-691.263 45.056]
[-700.817 56.756]
[-713.281 65.289]
[-727.646 69.964]
[-742.745 70.401]
[-757.355 66.565]
[-770.292 58.767]
[-780.507 47.639]
[-787.172 34.083]
[-789.747 19.199]
[-788.022 4.192]
[-782.138 -9.720]
[-772.572 -21.411]
[-760.099 -29.931]
[-745.730 -34.591]
[-730.631 -35.013]
[-716.024 -31.163]
[-703.095 -23.352]
[-692.891 -12.213]
[-686.240 1.349]
[-683.680 16.236]
[-668.778 17.948]
[-655.251 11.715]
[-642.424 20.977]
[-630.955 11.544]
[-615.818 13.068]
[-606.001 25.163]
[-592.474 18.929]
[-579.647 28.191]
[-572.743 25.869]
[-564.718 29.922]
[-549.819 31.663]
[-536.280 25.456]
[-523.471 34.743]
[-508.573 36.484]
[-493.674 38.225]
[-478.776 39.967]
[-463.877 41.708]
[-462.353 34.365]
[-477.040 31.317]
[-491.728 28.269]
[-488.680 13.582]
[-473.993 16.630]
[-459.306 19.677]
[-457.782 12.334]
[-472.143 8.004]
[-486.505 3.674]
[-500.866 -0.656]
[-516.313 2.769]
[-526.265 -8.313]
[-540.626 -12.643]
[-554.988 -16.973]
[-569.349 -21.303]
[-583.154 -13.609]
[-598.333 -18.011]
[-605.880 -31.897]
[-601.318 -47.029]
[-587.354 -54.429]
[-572.271 -49.707]
[-565.019 -35.664]
[-550.658 -31.335]
[-536.296 -27.005]
[-521.935 -22.675]
[-507.516 -26.409]
[-496.536 -15.017]
[-482.175 -10.687]
[-467.814 -6.358]
[-453.452 -2.028]
[-450.997 -9.114]
[-460.815 -20.454]
[-446.086 -23.288]
[-443.630 -30.374]
[-457.592 -35.858]
[-471.553 -41.342]
[-485.939 -34.797]
[-500.709 -40.419]
[-507.102 -54.873]
[-501.324 -69.583]
[-486.803 -75.823]
[-472.155 -69.889]
[-466.069 -55.304]
[-452.108 -49.820]
[-438.146 -44.336]
[-434.542 -50.913]
[-447.696 -58.121]
[-455.484 -70.941]
[-440.488 -71.276]
[-427.333 -64.067]
[-423.729 -70.645]
[-435.864 -79.461]
[-444.512 -81.920]
[-448.015 -88.307]
[-460.133 -97.147]
[-472.251 -105.988]
[-486.277 -99.888]
[-501.374 -101.616]
[-513.498 -110.609]
[-519.453 -124.371]
[-517.732 -139.166]
[-529.850 -148.006]
[-543.358 -135.853]
[-559.242 -127.043]
[-576.692 -122.021]
[-594.818 -121.042]
[-612.695 -124.153]
[-629.414 -131.192]
[-644.123 -141.799]
[-656.074 -155.429]
[-664.660 -171.388]
[-669.445 -188.860]
[-670.190 -206.954]
[-666.858 -224.749]
[-659.622 -241.337]
[-670.038 -232.867]
[-683.436 -228.616]
[-698.090 -229.609]
[-711.938 -236.164]
[-722.865 -247.788]
[-729.029 -263.186]
[-737.797 -265.172]
[-741.641 -271.360]
[-754.229 -279.517]
[-766.825 -287.662]
[-779.421 -295.807]
[-793.429 -289.345]
[-808.705 -291.504]
[-820.373 -301.597]
[-824.711 -316.402]
[-820.333 -331.195]
[-808.638 -341.256]
[-793.357 -343.375]
[-779.366 -336.874]
[-771.129 -323.830]
[-771.276 -308.403]
[-758.680 -300.258]
[-746.084 -292.113]
[-738.866 -291.131]
[-733.472 -283.940]
[-720.884 -275.782]
[-716.517 -281.880]
[-728.711 -290.614]
[-740.906 -299.348]
[-732.171 -311.543]
[-719.977 -302.809]
[-707.782 -294.074]
[-703.415 -300.172]
[-715.181 -309.475]
[-721.435 -310.765]
[-725.564 -314.409]
[-726.975 -318.838]
[-738.705 -328.187]
[-754.380 -326.164]
[-766.842 -335.883]
[-768.699 -351.578]
[-758.849 -363.937]
[-743.135 -365.628]
[-730.881 -355.648]
[-729.356 -339.917]
[-717.626 -330.568]
[-705.878 -321.242]
[-694.112 -311.938]
[-677.619 -311.068]
[-663.146 -304.521]
[-652.489 -293.605]
[-646.786 -280.137]
[-646.406 -266.146]
[-650.947 -253.574]
[-642.562 -261.997]
[-633.021 -269.090]
[-622.534 -274.695]
[-611.331 -278.689]
[-599.658 -280.982]
[-587.772 -281.525]
[-575.934 -280.304]
[-564.403 -277.345]
[-553.435 -272.713]
[-543.270 -266.509]
[-534.132 -258.868]
[-526.222 -249.958]
[-519.716 -239.974]
[-514.756 -229.135]
[-511.453 -217.680]
[-509.879 -205.860]
[-510.071 -193.934]
[-512.024 -182.165]
[-515.697 -170.812]
[-521.009 -160.125]
[-508.891 -151.284]
[-495.328 -157.441]
[-480.405 -155.972]
[-468.140 -147.173]
[-461.884 -133.325]
[-463.411 -118.106]
[-451.292 -109.265]
[-439.174 -100.425]
[-427.048 -91.597]
[-414.912 -82.780]
[-390.917 -78.603]
[-369.886 -69.365]
[-352.798 -56.168]
[-340.290 -40.282]
[-332.638 -23.046]
[-329.766 -5.773]
[-331.264 10.335]
[-336.445 24.268]
[-344.408 35.266]
[-330.601 41.127]
[-316.793 46.988]
[-302.986 52.849]
[-289.178 58.710]
[-275.370 64.571]
[-272.842 60.302]
[-270.037 56.210]
[-266.967 52.312]
[-263.647 48.626]
[-260.090 45.168]
[-269.024 33.119]
[-277.958 21.069]
[-286.892 9.020]
[-302.144 2.996]
[-304.285 -13.263]
[-291.112 -23.031]
[-276.176 -16.259]
[-274.842 0.086]
[-265.908 12.135]
[-256.974 24.185]
[-248.040 36.234]
[-233.428 29.486]
[-217.704 26.011]
[-201.593 25.970]
[-185.836 29.371]
[-171.161 36.058]
[-158.245 45.728]
[-147.684 57.938]
[-139.968 72.127]
[-135.455 87.644]
[-134.357 103.774]
[-119.507 105.890]
[-104.657 108.007]
[-89.808 110.123]
[-74.958 112.240]
[-60.108 114.356]
[-45.258 116.472]
[-36.908 83.062]
[-21.441 54.414]
[-0.594 31.899]
[23.670 16.350]
[49.321 8.035]
[74.408 6.678]
[97.200 11.514]
[116.296 21.377]
[118.987 6.620]
[104.155 13.027]
[86.203 12.220]
[67.937 3.251]
[60.870 -9.980]
[53.802 -23.210]
[46.734 -36.441]
[35.728 -52.394]
[52.823 -61.526]
[59.965 -43.508]
[67.032 -30.278]
[74.100 -17.047]
[81.168 -3.817]
[95.177 -9.179]
[91.604 -23.747]
[80.803 -35.307]
[85.287 -49.511]
[70.731 -63.587]
[77.291 -81.861]
[73.662 -96.415]
[70.033 -110.970]
[66.405 -125.524]
[62.776 -140.079]
[57.456 -137.270]
[51.070 -135.729]
[43.923 -135.746]
[36.393 -137.536]
[28.905 -141.227]
[21.918 -146.844]
[15.896 -154.311]
[11.288 -163.440]
[8.505 -173.944]
[-6.576 -177.596]
[-16.605 -189.437]
[-17.724 -204.914]
[-9.504 -218.075]
[4.894 -223.860]
[19.935 -220.044]
[29.834 -208.095]
[30.786 -192.607]
[22.424 -179.536]
[29.572 -181.805]
[25.034 -196.102]
[20.496 -210.399]
[34.793 -214.937]
[39.331 -200.640]
[43.869 -186.343]
[51.018 -188.613]
[47.558 -203.208]
[44.099 -217.804]
[29.170 -216.161]
[14.152 -216.366]
[-0.727 -218.414]
[-15.241 -222.276]
[-29.171 -227.892]
[-42.305 -235.177]
[-54.445 -244.021]
[-65.405 -254.290]
[-75.021 -265.828]
[-83.145 -278.460]
[-89.656 -291.995]
[-94.454 -306.227]
[-97.466 -320.941]
[-98.648 -335.914]
[-97.980 -350.918]
[-95.474 -365.727]
[-91.167 -380.116]
[-85.124 -393.866]
[-77.437 -406.769]
[-68.223 -418.630]
[-57.621 -429.268]
[-45.792 -438.523]
[-32.916 -446.254]
[-19.186 -452.345]
[-4.813 -456.701]
[9.987 -459.259]
[24.989 -459.978]
[39.966 -458.848]
[54.690 -455.887]
[68.939 -451.138]
[82.496 -444.674]
[95.156 -436.593]
[106.727 -427.017]
[117.034 -416.092]
[125.920 -403.984]
[133.250 -390.875]
[138.914 -376.964]
[142.826 -362.463]
[144.926 -347.592]
[145.182 -332.574]
[143.591 -317.640]
[140.176 -303.014]
[134.990 -288.918]
[128.112 -275.567]
[119.644 -263.162]
[109.716 -251.891]
[98.479 -241.927]
[86.102 -233.418]
[72.773 -226.496]
[58.695 -221.263]
[62.154 -206.668]
[65.613 -192.072]
[73.021 -193.245]
[70.674 -208.060]
[68.328 -222.876]
[83.143 -225.222]
[85.490 -210.407]
[87.836 -195.592]
[95.244 -196.765]
[94.023 -211.715]
[81.163 -220.611]
[77.078 -235.705]
[83.699 -249.872]
[97.899 -256.422]
[112.973 -252.262]
[121.804 -239.356]
[120.222 -223.799]
[108.974 -212.936]
[110.194 -197.985]
[104.314 -156.553]
[77.330 -143.708]
[80.959 -129.153]
[84.588 -114.599]
[88.217 -100.044]
[91.845 -85.490]
[100.897 -81.133]
[106.232 -72.366]
[105.932 -61.889]
[99.855 -53.084]
[110.401 -42.565]
[106.173 -27.319]
[109.745 -12.751]
[124.675 -11.299]
[130.988 -24.906]
[137.301 -38.513]
[143.613 -52.120]
[143.185 -57.044]
[144.479 -61.265]
[146.970 -64.263]
[150.003 -65.787]
[156.395 -79.357]
[162.787 -92.927]
[169.179 -106.497]
[175.571 -120.067]
[181.963 -133.637]
[188.355 -147.207]
[194.747 -160.777]
[201.138 -174.346]
[200.020 -190.128]
[212.443 -198.345]
[218.835 -211.915]
[225.227 -225.485]
[231.618 -239.055]
[238.010 -252.625]
[225.119 -244.955]
[210.158 -243.877]
[196.301 -249.620]
[186.489 -260.966]
[182.803 -275.506]
[186.026 -290.156]
[195.473 -301.806]
[209.141 -307.986]
[224.129 -307.384]
[237.257 -300.127]
[245.739 -287.756]
[247.776 -272.895]
[254.403 -286.351]
[261.031 -299.808]
[267.659 -313.264]
[274.287 -326.720]
[280.915 -340.177]
[287.542 -353.633]
[294.157 -367.096]
[300.759 -380.565]
[283.083 -389.820]
[272.625 -412.460]
[278.162 -442.081]
[280.996 -456.811]
[283.829 -471.541]
[286.663 -486.271]
[289.497 -501.001]
[281.726 -515.037]
[287.988 -529.807]
[303.479 -533.982]
[316.315 -524.358]
[316.650 -508.319]
[304.226 -498.168]
[301.393 -483.438]
[298.559 -468.708]
[295.726 -453.978]
[292.892 -439.248]
[300.180 -437.476]
[310.537 -448.326]
[314.755 -433.932]
[322.043 -432.160]
[326.289 -446.546]
[330.535 -460.933]
[334.782 -475.319]
[339.028 -489.705]
[343.274 -504.092]
[347.520 -518.478]
[335.481 -527.720]
[327.596 -540.689]
[324.932 -555.631]
[327.850 -570.526]
[335.955 -583.359]
[348.150 -592.394]
[362.787 -596.410]
[377.886 -594.863]
[391.405 -587.963]
[401.515 -576.643]
[406.849 -562.433]
[406.687 -547.256]
[401.049 -533.165]
[390.699 -522.064]
[377.035 -515.455]
[361.907 -514.232]
[357.661 -499.845]
[353.414 -485.459]
[349.168 -471.073]
[344.922 -456.686]
[340.675 -442.300]
[336.429 -427.913]
[343.281 -424.863]
[349.382 -438.566]
[363.085 -432.464]
[356.984 -418.762]
[363.836 -415.711]
[371.685 -428.493]
[379.535 -441.275]
[329.753 -452.348]
[303.024 -514.392]
[309.231 -528.048]
[315.438 -541.703]
[315.188 -548.084]
[317.735 -552.966]
[321.696 -555.400]
[327.956 -569.031]
[334.189 -582.674]
[340.397 -596.330]
[346.604 -609.985]
[339.695 -624.014]
[343.471 -639.189]
[356.147 -648.345]
[371.740 -647.159]
[382.886 -636.191]
[384.323 -620.619]
[375.372 -607.797]
[360.259 -603.778]
[354.052 -590.122]
[347.845 -576.467]
[348.598 -571.880]
[346.574 -566.759]
[341.587 -562.771]
[335.327 -549.139]
[329.093 -535.496]
[322.886 -521.841]
[316.679 -508.185]
[330.051 -501.388]
[337.424 -514.451]
[344.798 -527.513]
[352.172 -540.576]
[359.546 -553.638]
[366.919 -566.701]
[362.440 -581.857]
[370.063 -595.701]
[385.266 -600.020]
[399.029 -592.251]
[403.187 -577.003]
[395.272 -563.323]
[379.982 -559.327]
[372.608 -546.265]
[365.234 -533.202]
[357.861 -520.140]
[350.487 -507.077]
[343.113 -494.015]
[349.497 -490.077]
[362.263 -482.203]
[368.647 -478.265]
[377.010 -490.717]
[368.567 -503.357]
[365.608 -518.267]
[368.585 -533.174]
[377.044 -545.804]
[389.696 -554.231]
[404.610 -557.170]
[419.512 -554.173]
[432.131 -545.697]
[440.541 -533.035]
[443.461 -518.117]
[440.444 -503.219]
[431.952 -490.611]
[419.279 -482.217]
[404.357 -479.317]
[389.462 -482.353]
[381.099 -469.902]
[393.259 -461.120]
[402.448 -472.976]
[411.637 -484.832]
[420.826 -496.688]
[430.015 -508.544]
[439.204 -520.400]
[438.622 -536.432]
[450.887 -546.774]
[466.591 -543.491]
[473.687 -529.103]
[466.731 -514.646]
[451.060 -511.211]
[441.871 -499.355]
[432.682 -487.499]
[423.493 -475.643]
[414.304 -463.787]
[405.115 -451.931]
[419.290 -456.837]
[434.078 -454.320]
[445.831 -445.001]
[451.652 -431.176]
[450.106 -416.256]
[441.574 -403.919]
[428.160 -397.208]
[413.170 -397.776]
[400.303 -405.485]
[392.729 -418.432]
[392.317 -433.425]
[384.467 -420.643]
[376.618 -407.861]
[369.251 -387.781]
[356.033 -373.891]
[340.334 -367.400]
[325.501 -367.974]
[314.228 -373.963]
[307.626 -360.494]
[307.504 -353.210]
[300.999 -347.005]
[294.371 -333.549]
[287.743 -320.092]
[281.115 -306.636]
[274.488 -293.180]
[267.860 -279.723]
[261.232 -266.267]
[263.182 -258.972]
[259.885 -251.055]
[251.580 -246.233]
[245.188 -232.663]
[238.796 -219.093]
[232.404 -205.523]
[226.013 -191.953]
[227.589 -177.142]
[214.708 -167.954]
[208.316 -154.385]
[201.924 -140.815]
[195.533 -127.245]
[189.141 -113.675]
[182.749 -100.105]
[176.357 -86.535]
[169.965 -72.965]
[163.573 -59.395]
[157.220 -45.807]
[150.907 -32.200]
[144.595 -18.593]
[138.282 -4.986]
[133.743 9.311]
[131.053 24.068]
[137.359 28.128]
[145.479 15.516]
[153.600 2.905]
[161.721 -9.707]
[169.842 -22.318]
[182.453 -14.197]
[174.332 -1.586]
[166.212 11.026]
[158.091 23.637]
[149.970 36.249]
[156.276 40.309]
[168.597 31.753]
[180.917 23.197]
[193.238 14.641]
[205.558 6.085]
[217.879 -2.470]
[218.075 -17.986]
[227.381 -30.403]
[242.218 -34.947]
[256.881 -29.870]
[265.732 -17.125]
[265.367 -1.612]
[255.927 10.703]
[241.042 15.086]
[226.435 9.850]
[214.114 18.406]
[201.794 26.962]
[189.473 35.518]
[177.152 44.074]
[164.832 52.630]
[169.059 60.561]
[172.333 68.838]
[174.632 77.349]
[175.944 85.980]
[176.270 94.618]
[175.628 103.153]
[174.042 111.477]
[188.561 115.246]
[203.080 119.016]
[212.027 118.143]
[217.623 122.807]
[232.134 126.605]
[246.645 130.403]
[264.365 125.163]
[276.278 138.130]
[290.797 141.900]
[295.444 124.018]
[308.342 107.706]
[328.703 96.704]
[354.101 94.279]
[380.750 102.534]
[404.067 121.875]
[419.045 121.061]
[434.023 120.247]
[449.001 119.432]
[463.979 118.618]
[472.240 115.071]
[478.987 117.817]
[493.966 117.032]
[508.944 116.218]
[523.920 115.375]
[538.897 114.532]
[553.873 113.689]
[568.849 112.846]
[570.130 81.150]
[608.657 57.795]
[623.026 53.493]
[637.396 49.190]
[651.766 44.888]
[666.136 40.586]
[672.868 29.694]
[684.818 26.356]
[695.509 31.822]
[709.887 27.548]
[724.266 23.273]
[738.644 18.999]
[753.022 14.725]
[767.400 10.451]
[781.778 6.177]
[779.413 -8.658]
[779.003 -23.674]
[780.558 -38.615]
[784.049 -53.225]
[789.418 -67.255]
[796.572 -80.464]
[805.389 -92.626]
[815.718 -103.533]
[827.383 -112.999]
[840.183 -120.861]
[853.900 -126.985]
[868.299 -131.266]
[883.133 -133.631]
[898.149 -134.039]
[913.090 -132.484]
[927.701 -128.992]
[941.730 -123.622]
[954.939 -116.468]
[967.100 -107.650]
[978.007 -97.321]
[987.472 -85.656]
[995.333 -72.855]
[1001.457 -59.138]
[1005.737 -44.739]
[1008.101 -29.904]
[1008.509 -14.888]
[1006.953 0.053]
[1003.460 14.663]
[998.090 28.692]
[990.935 41.900]
[982.117 54.062]
[971.786 64.968]
[960.121 74.432]
[947.320 82.293]
[933.603 88.416]
[919.204 92.695]
[904.369 95.059]
[889.353 95.466]
[874.412 93.909]
[859.802 90.416]
[845.773 85.045]
[832.565 77.889]
[820.404 69.070]
[809.498 58.740]
[800.035 47.074]
[792.174 34.273]
[786.052 20.555]
[771.674 24.829]
[757.296 29.103]
[742.918 33.377]
[728.540 37.652]
[714.162 41.926]
[699.783 46.200]
[688.330 59.575]
[670.438 54.956]
[656.068 59.258]
[641.698 63.560]
[627.329 67.862]
[612.959 72.164]
[614.475 79.509]
[617.509 94.200]
[619.025 101.545]
[633.924 99.803]
[648.822 98.062]
[663.721 96.320]
[678.620 94.579]
[693.650 86.735]
[705.348 99.006]
[696.795 113.644]
[680.361 109.478]
[665.462 111.219]
[650.564 112.960]
[635.665 114.702]
[620.767 116.443]
[621.987 131.394]
[636.971 130.696]
[651.954 129.998]
[666.938 129.300]
[681.922 128.602]
[696.906 127.904]
[703.323 114.009]
[715.469 104.696]
[730.554 102.106]
[745.111 106.834]
[755.794 117.794]
[760.150 132.467]
[757.177 147.481]
[747.558 159.386]
[733.504 165.446]
[718.244 164.270]
[705.284 156.127]
[697.604 142.888]
[682.620 143.586]
[667.636 144.284]
[652.652 144.982]
[637.669 145.679]
[622.685 146.377]
[621.900 161.357]
[632.005 145.276]
[652.703 138.568]
[675.521 147.591]
[678.848 138.456]
[683.844 130.122]
[690.323 122.892]
[698.051 117.026]
[706.744 112.734]
[716.086 110.169]
[725.737 109.423]
[735.349 110.519]
[744.571 113.414]
[753.072 118.003]
[760.543 124.115]
[766.715 131.527]
[771.367 139.968]
[774.332 149.132]
[775.506 158.684]
[781.510 156.510]
[786.935 157.455]
[790.456 160.490]
[805.344 162.318]
[820.232 164.146]
[832.610 154.690]
[847.682 156.756]
[856.622 168.615]
[871.510 170.443]
[881.993 159.003]
[897.206 155.943]
[911.297 162.440]
[918.850 175.995]
[916.959 191.396]
[906.351 202.722]
[891.107 205.616]
[877.086 198.967]
[869.682 185.331]
[854.794 183.503]
[843.251 192.847]
[828.126 191.205]
[818.404 179.035]
[803.516 177.207]
[788.627 175.379]
[773.736 173.579]
[764.622 191.719]
[749.083 204.832]
[729.609 210.786]
[709.331 208.597]
[691.520 198.592]
[679.061 182.364]
[673.982 162.512]
[672.630 169.889]
[687.384 172.594]
[702.138 175.299]
[716.892 178.004]
[731.646 180.709]
[743.071 190.428]
[728.941 195.463]
[714.187 192.758]
[699.433 190.053]
[684.679 187.348]
[669.925 184.643]
[668.572 192.020]
[683.069 195.874]
[697.565 199.729]
[712.061 203.583]
[728.922 201.809]
[735.294 217.520]
[721.961 227.992]
[708.207 218.079]
[693.711 214.225]
[679.214 210.371]
[664.718 206.517]
[652.486 208.754]
[640.872 206.959]
[631.100 201.759]
[624.058 194.121]
[620.225 185.200]
[619.640 176.185]
[601.922 175.076]
[586.985 169.128]
[575.988 159.771]
[569.529 148.665]
[567.614 137.503]
[569.692 127.822]
[554.716 128.665]
[539.740 129.508]
[524.763 130.351]
[509.787 131.194]
[506.074 133.991]
[500.599 134.577]
[494.751 132.012]
[479.772 132.797]
[464.793 133.596]
[449.815 134.410]
[434.837 135.224]
[419.859 136.039]
[404.881 136.853]
[403.272 144.178]
[417.923 147.396]
[432.574 150.614]
[443.653 160.727]
[429.356 165.265]
[414.705 162.047]
[400.054 158.829]
[398.445 166.154]
[411.703 173.170]
[430.152 172.122]
[438.783 187.470]
[452.055 194.461]
[465.326 201.452]
[478.597 208.442]
[491.869 215.433]
[505.140 222.424]
[518.412 229.414]
[531.683 236.405]
[544.955 243.396]
[558.832 236.707]
[573.811 239.440]
[584.186 250.341]
[586.129 265.084]
[599.401 272.075]
[613.808 265.994]
[628.737 270.645]
[637.141 283.833]
[635.050 299.330]
[623.453 309.819]
[607.824 310.348]
[595.544 300.667]
[592.410 285.346]
[579.139 278.356]
[565.881 285.092]
[551.024 282.701]
[540.297 271.894]
[537.964 256.667]
[524.693 249.676]
[511.421 242.686]
[498.150 235.695]
[484.878 228.704]
[471.607 221.714]
[458.335 214.723]
[445.064 207.732]
[431.793 200.742]
[420.242 204.022]
[409.170 198.423]
[404.687 186.428]
[391.429 179.412]
[387.068 185.514]
[399.271 194.236]
[411.474 202.958]
[423.677 211.681]
[429.885 225.336]
[414.955 223.884]
[402.752 215.162]
[390.548 206.439]
[378.345 197.717]
[373.984 203.818]
[384.914 214.091]
[395.845 224.363]
[406.776 234.636]
[417.706 244.908]
[437.580 248.786]
[442.031 267.684]
[453.021 277.893]
[464.031 288.080]
[475.041 298.268]
[486.051 308.455]
[497.061 318.642]
[514.597 310.858]
[535.692 316.768]
[549.860 336.929]
[561.275 346.660]
[572.691 356.390]
[584.116 366.110]
[595.550 375.818]
[606.985 385.527]
[618.419 395.235]
[629.853 404.944]
[641.288 414.652]
[657.017 413.117]
[669.172 423.218]
[670.541 438.963]
[660.312 451.010]
[644.554 452.213]
[632.615 441.857]
[631.579 426.087]
[620.145 416.378]
[608.711 406.670]
[597.276 396.961]
[585.842 387.253]
[574.407 377.544]
[567.377 375.636]
[562.960 367.806]
[551.545 358.075]
[540.129 348.344]
[535.025 353.840]
[524.816 364.830]
[519.712 370.325]
[530.257 380.993]
[540.801 391.661]
[551.346 402.329]
[561.891 412.997]
[577.861 414.528]
[586.500 428.046]
[581.181 443.182]
[565.984 448.324]
[552.568 439.529]
[551.223 423.542]
[540.678 412.874]
[530.133 402.206]
[519.589 391.538]
[509.044 380.869]
[498.660 377.092]
[490.213 370.788]
[484.249 362.722]
[481.048 353.752]
[480.617 344.745]
[482.712 336.494]
[486.873 329.652]
[475.863 319.465]
[464.853 309.278]
[453.844 299.090]
[442.834 288.903]
[438.242 288.175]
[434.018 284.643]
[431.801 278.655]
[421.837 279.930]
[412.587 275.483]
[407.133 266.533]
[407.434 255.839]
[396.503 245.566]
[385.573 235.294]
[374.642 225.021]
[363.712 214.749]
[358.037 219.653]
[367.845 231.002]
[370.664 245.735]
[356.496 240.810]
[346.688 229.461]
[341.013 234.365]
[349.593 246.669]
[358.173 258.973]
[366.752 271.277]
[375.344 283.572]
[383.948 295.860]
[392.551 308.147]
[407.635 314.583]
[409.333 330.894]
[395.900 340.300]
[381.154 333.125]
[380.264 316.750]
[371.661 304.463]
[363.057 292.176]
[356.739 288.550]
[354.449 279.856]
[345.869 267.552]
[337.289 255.249]
[328.709 242.945]
[304.824 230.590]
[288.425 212.484]
[280.440 191.990]
[280.483 172.390]
[287.027 156.418]
[272.508 152.649]
[262.014 158.484]
[249.956 155.566]
[242.847 144.914]
[228.336 141.117]
[213.825 137.319]
[199.310 133.535]
[184.791 129.765]
[170.273 125.995]
[183.748 152.194]
[188.717 184.378]
[183.441 220.037]
[188.035 234.316]
[206.486 228.603]
[229.232 237.853]
[244.860 263.553]
[251.226 277.136]
[264.088 286.348]
[262.483 301.156]
[268.849 314.738]
[275.214 328.320]
[281.580 341.903]
[296.720 340.832]
[311.223 345.306]
[323.128 354.721]
[330.825 367.802]
[333.273 382.781]
[330.140 397.633]
[321.851 410.347]
[309.527 419.205]
[294.833 423.009]
[279.758 421.245]
[266.341 414.151]
[256.395 402.686]
[251.266 388.401]
[251.648 373.228]
[257.488 359.219]
[267.998 348.268]
[261.632 334.686]
[255.266 321.104]
[248.901 307.521]
[236.494 299.281]
[237.643 283.501]
[231.278 269.919]
[224.324 272.728]
[203.462 281.157]
[208.318 295.349]
[213.174 309.542]
[218.030 323.734]
[222.886 337.926]
[232.754 342.059]
[238.662 350.716]
[238.902 360.976]
[233.635 369.530]
[245.382 380.127]
[242.125 394.662]
[255.808 403.038]
[257.646 418.976]
[246.231 430.248]
[230.318 428.208]
[222.115 414.421]
[227.914 399.463]
[216.510 389.881]
[219.424 374.331]
[204.038 362.488]
[208.694 342.782]
[203.838 328.590]
[198.982 314.398]
[194.126 300.205]
[189.270 286.013]
[182.031 287.975]
[185.955 302.453]
[171.478 306.377]
[167.554 291.900]
[160.315 293.862]
[163.291 308.564]
[166.267 323.265]
[180.224 329.787]
[187.578 343.119]
[185.694 358.050]
[175.501 368.878]
[178.478 383.580]
[188.799 395.570]
[183.741 409.580]
[186.717 424.281]
[201.522 427.994]
[213.245 437.768]
[219.557 451.665]
[219.207 466.924]
[212.263 480.516]
[200.104 489.742]
[185.144 492.771]
[170.354 489.000]
[158.670 479.179]
[152.412 465.258]
[152.823 450.000]
[159.820 436.436]
[172.016 427.258]
[169.039 412.556]
[158.931 401.617]
[163.776 386.556]
[160.800 371.854]
[147.198 365.843]
[139.655 352.821]
[141.245 337.678]
[151.566 326.242]
[148.589 311.540]
[145.613 296.838]
[141.484 273.681]
[147.519 254.271]
[159.882 242.279]
[173.760 238.923]
[168.788 233.599]
[169.157 224.616]
[161.771 225.919]
[164.376 240.691]
[166.980 255.463]
[169.585 270.235]
[172.190 285.007]
[174.794 299.779]
[160.022 302.384]
[157.418 287.612]
[154.813 272.840]
[152.208 258.068]
[149.604 243.296]
[146.999 228.523]
[139.613 229.826]
[140.195 244.815]
[140.776 259.803]
[153.246 269.239]
[156.683 284.494]
[149.464 298.366]
[134.997 304.304]
[120.114 299.505]
[111.842 286.234]
[114.086 270.759]
[125.787 260.385]
[125.206 245.396]
[124.624 230.407]
[117.174 229.544]
[115.447 244.444]
[113.720 259.345]
] def
/pairs [
[66 73]
[67 72]
[82 107]
[83 106]
[85 105]
[91 99]
[92 98]
[134 141]
[135 140]
[185 197]
[186 196]
[187 195]
[216 667]
[217 666]
[218 665]
[219 664]
[220 663]
[221 662]
[222 661]
[231 253]
[232 252]
[233 251]
[234 250]
[235 249]
[238 245]
[239 244]
[258 379]
[259 378]
[263 371]
[264 370]
[265 369]
[266 368]
[267 367]
[269 366]
[270 365]
[271 364]
[277 343]
[278 342]
[279 341]
[281 339]
[282 338]
[283 337]
[284 336]
[285 335]
[286 333]
[288 302]
[289 301]
[290 300]
[306 330]
[307 329]
[308 328]
[311 326]
[312 325]
[313 324]
[314 323]
[347 357]
[348 356]
[349 355]
[382 635]
[383 634]
[384 633]
[385 632]
[386 631]
[387 630]
[393 404]
[394 403]
[395 402]
[396 401]
[408 462]
[409 461]
[410 460]
[411 459]
[412 458]
[414 456]
[415 455]
[416 453]
[418 451]
[421 448]
[423 446]
[424 445]
[469 492]
[470 491]
[471 490]
[472 489]
[474 487]
[475 486]
[476 485]
[477 484]
[496 507]
[497 506]
[498 505]
[513 621]
[514 620]
[516 619]
[517 618]
[518 617]
[523 612]
[524 611]
[537 591]
[543 563]
[545 562]
[546 560]
[547 559]
[548 558]
[570 585]
[571 584]
[574 583]
[575 582]
[640 651]
[641 650]
[642 649]
[643 648]
[675 1038]
[676 1037]
[679 688]
[680 687]
[681 686]
[682 685]
[689 807]
[690 806]
[692 804]
[694 800]
[695 799]
[696 798]
[697 797]
[698 796]
[707 716]
[723 777]
[724 776]
[725 775]
[784 794]
[785 793]
[808 1036]
[809 1035]
[810 1034]
[811 1033]
[815 1032]
[816 1031]
[817 1030]
[818 1029]
[819 1028]
[820 1027]
[821 1026]
[822 1025]
[823 1024]
[825 1022]
[826 1021]
[827 1020]
[828 1019]
[829 1018]
[841 1015]
[842 1014]
[843 1013]
[844 1012]
[845 1011]
[846 1010]
[847 1009]
[848 1007]
[849 1006]
[852 866]
[853 865]
[854 864]
[855 863]
[856 862]
[870 898]
[871 897]
[872 896]
[873 895]
[874 894]
[875 893]
[876 892]
[903 1001]
[904 1000]
[905 999]
[907 933]
[908 932]
[909 931]
[912 930]
[913 929]
[914 926]
[915 925]
[916 924]
[934 951]
[935 950]
[936 949]
[937 948]
[938 947]
[939 946]
[954 971]
[955 970]
[972 988]
[973 987]
[974 986]
[975 985]
[976 984]
[977 983]
[1049 1068]
[1050 1067]
[1051 1066]
[1052 1065]
[1053 1064]
[1054 1063]
[1075 1486]
[1076 1485]
[1077 1484]
[1079 1483]
[1080 1482]
[1081 1481]
[1083 1478]
[1084 1477]
[1090 1312]
[1091 1311]
[1092 1310]
[1093 1309]
[1094 1308]
[1096 1307]
[1097 1306]
[1098 1303]
[1099 1302]
[1100 1301]
[1101 1300]
[1102 1299]
[1104 1176]
[1105 1175]
[1106 1174]
[1107 1173]
[1108 1172]
[1111 1170]
[1112 1169]
[1113 1168]
[1114 1167]
[1115 1166]
[1116 1165]
[1117 1164]
[1179 1191]
[1180 1190]
[1181 1189]
[1182 1188]
[1183 1187]
[1192 1214]
[1193 1213]
[1194 1212]
[1195 1211]
[1196 1210]
[1197 1209]
[1215 1293]
[1218 1265]
[1233 1258]
[1236 1257]
[1237 1256]
[1238 1255]
[1241 1252]
[1242 1251]
[1277 1287]
[1278 1286]
[1279 1285]
[1280 1284]
[1320 1361]
[1321 1360]
[1323 1357]
[1324 1356]
[1325 1355]
[1326 1354]
[1327 1353]
[1328 1352]
[1329 1351]
[1330 1350]
[1331 1349]
[1335 1345]
[1336 1344]
[1371 1448]
[1372 1447]
[1373 1446]
[1374 1445]
[1375 1444]
[1377 1440]
[1378 1437]
[1379 1436]
[1380 1435]
[1381 1434]
[1382 1433]
[1385 1409]
[1386 1408]
[1387 1407]
[1388 1405]
[1389 1404]
[1390 1403]
[1391 1402]
[1392 1401]
[1393 1400]
[1412 1426]
[1413 1425]
[1414 1424]
[1415 1423]
[1416 1422]
[1454 1472]
[1455 1471]
[1456 1470]
[1457 1469]
[1458 1467]
[1459 1466]
[1460 1465]
[1489 1591]
[1490 1589]
[1493 1521]
[1494 1520]
[1496 1518]
[1497 1517]
[1498 1516]
[1499 1515]
[1523 1547]
[1524 1546]
[1525 1545]
[1526 1544]
[1527 1543]
[1531 1541]
[1533 1539]
[1552 1585]
[1553 1584]
[1554 1583]
[1558 1579]
[1559 1578]
[1561 1576]
[1562 1575]
[1604 1616]
[1605 1615]
[1606 1614]
] def

init

% switch off outline pairs or bases by removing these lines
drawoutline
drawpairs
drawbases
% show it
showpage
end
%%EOF
