<?xml version="1.0" encoding="UTF-8" standalone="yes"?>
<svg xmlns="http://www.w3.org/2000/svg" height="452" width="452">
<script type="text/ecmascript">
      <![CDATA[
        var shown = 1;
        function click() {
             var seq = document.getElementById("seq");
             if (shown==1) {
               seq.setAttribute("style", "visibility: hidden");
               shown = 0;
             } else {
               seq.setAttribute("style", "visibility: visible");
               shown = 1;
             }
         }
        ]]>
</script>
  <rect style="stroke: white; fill: white" height="452" x="0" y="0" width="452" onclick="click(evt)" />
  <g transform="scale(1.634547,1.634547) translate(25.699417,40.998802)">
    <polyline style="stroke: black; fill: none; stroke-width: 1.5" id="outline" points="
      97.525,-17.532
      96.852,-2.547
      96.179,12.438
      95.506,27.423
      94.833,42.408
      94.160,57.392
      84.471,60.293
      75.906,65.672
      69.084,73.139
      64.500,82.154
      49.636,80.141
      34.772,78.127
      19.908,76.114
      9.084,64.272
      -6.912,65.495
      -15.811,78.844
      -10.784,94.080
      4.310,99.514
      17.894,90.978
      32.758,92.992
      47.623,95.005
      62.487,97.019
      68.624,115.243
      82.970,128.049
      78.979,142.508
      74.988,156.968
      70.998,171.427
      67.007,185.886
      52.712,192.224
      45.880,206.291
      49.740,221.445
      62.467,230.531
      78.052,229.258
      89.138,218.229
      90.488,202.650
      81.467,189.877
      85.457,175.418
      89.448,160.958
      93.438,146.499
      97.429,132.039
      108.506,131.152
      118.839,127.066
      127.527,120.138
      133.810,110.973
      137.139,100.371
      152.124,99.698
      167.109,99.025
      182.094,98.352
      197.079,97.679
      207.524,109.317
      223.013,111.467
      236.233,103.114
      240.941,88.202
      234.915,73.772
      221.000,66.638
      205.766,70.167
      196.406,82.695
      181.421,83.368
      166.436,84.040
      151.451,84.713
      136.466,85.386
      126.584,67.948
      109.145,58.065
      109.818,43.081
      110.491,28.096
      111.164,13.111
      111.837,-1.874
      112.510,-16.859
      115.563,-35.999
    " />
    <g style="stroke: black; stroke-width: 1" id="pairs">
      <line id="1,68" x1="97.525" y1="-17.532" x2="112.510" y2="-16.859" />
      <line id="2,67" x1="96.852" y1="-2.547" x2="111.837" y2="-1.874" />
      <line id="3,66" x1="96.179" y1="12.438" x2="111.164" y2="13.111" />
      <line id="4,65" x1="95.506" y1="27.423" x2="110.491" y2="28.096" />
      <line id="5,64" x1="94.833" y1="42.408" x2="109.818" y2="43.081" />
      <line id="6,63" x1="94.160" y1="57.392" x2="109.145" y2="58.065" />
      <line id="10,22" x1="64.500" y1="82.154" x2="62.487" y2="97.019" />
      <line id="11,21" x1="49.636" y1="80.141" x2="47.623" y2="95.005" />
      <line id="12,20" x1="34.772" y1="78.127" x2="32.758" y2="92.992" />
      <line id="13,19" x1="19.908" y1="76.114" x2="17.894" y2="90.978" />
      <line id="24,40" x1="82.970" y1="128.049" x2="97.429" y2="132.039" />
      <line id="25,39" x1="78.979" y1="142.508" x2="93.438" y2="146.499" />
      <line id="26,38" x1="74.988" y1="156.968" x2="89.448" y2="160.958" />
      <line id="27,37" x1="70.998" y1="171.427" x2="85.457" y2="175.418" />
      <line id="28,36" x1="67.007" y1="185.886" x2="81.467" y2="189.877" />
      <line id="45,61" x1="137.139" y1="100.371" x2="136.466" y2="85.386" />
      <line id="46,60" x1="152.124" y1="99.698" x2="151.451" y2="84.713" />
      <line id="47,59" x1="167.109" y1="99.025" x2="166.436" y2="84.040" />
      <line id="48,58" x1="182.094" y1="98.352" x2="181.421" y2="83.368" />
      <line id="49,57" x1="197.079" y1="97.679" x2="196.406" y2="82.695" />
    </g>
    <g style="font-family: SansSerif" transform="translate(-4.6, 4)" id="seq">
      <text x="97.525" y="-17.532">G</text>
      <text x="96.852" y="-2.547">A</text>
      <text x="96.179" y="12.438">G</text>
      <text x="95.506" y="27.423">G</text>
      <text x="94.833" y="42.408">C</text>
      <text x="94.160" y="57.392">U</text>
      <text x="84.471" y="60.293">U</text>
      <text x="75.906" y="65.672">U</text>
      <text x="69.084" y="73.139">A</text>
      <text x="64.500" y="82.154">G</text>
      <text x="49.636" y="80.141">C</text>
      <text x="34.772" y="78.127">U</text>
      <text x="19.908" y="76.114">U</text>
      <text x="9.084" y="64.272">A</text>
      <text x="-6.912" y="65.495">A</text>
      <text x="-15.811" y="78.844">U</text>
      <text x="-10.784" y="94.080">U</text>
      <text x="4.310" y="99.514">A</text>
      <text x="17.894" y="90.978">A</text>
      <text x="32.758" y="92.992">A</text>
      <text x="47.623" y="95.005">G</text>
      <text x="62.487" y="97.019">C</text>
      <text x="68.624" y="115.243">G</text>
      <text x="82.970" y="128.049">U</text>
      <text x="78.979" y="142.508">C</text>
      <text x="74.988" y="156.968">U</text>
      <text x="70.998" y="171.427">G</text>
      <text x="67.007" y="185.886">A</text>
      <text x="52.712" y="192.224">U</text>
      <text x="45.880" y="206.291">U</text>
      <text x="49.740" y="221.445">U</text>
      <text x="62.467" y="230.531">G</text>
      <text x="78.052" y="229.258">C</text>
      <text x="89.138" y="218.229">A</text>
      <text x="90.488" y="202.650">U</text>
      <text x="81.467" y="189.877">U</text>
      <text x="85.457" y="175.418">C</text>
      <text x="89.448" y="160.958">A</text>
      <text x="93.438" y="146.499">G</text>
      <text x="97.429" y="132.039">A</text>
      <text x="108.506" y="131.152">G</text>
      <text x="118.839" y="127.066">G</text>
      <text x="127.527" y="120.138">A</text>
      <text x="133.810" y="110.973">U</text>
      <text x="137.139" y="100.371">A</text>
      <text x="152.124" y="99.698">C</text>
      <text x="167.109" y="99.025">A</text>
      <text x="182.094" y="98.352">G</text>
      <text x="197.079" y="97.679">G</text>
      <text x="207.524" y="109.317">U</text>
      <text x="223.013" y="111.467">U</text>
      <text x="236.233" y="103.114">A</text>
      <text x="240.941" y="88.202">A</text>
      <text x="234.915" y="73.772">U</text>
      <text x="221.000" y="66.638">A</text>
      <text x="205.766" y="70.167">U</text>
      <text x="196.406" y="82.695">C</text>
      <text x="181.421" y="83.368">C</text>
      <text x="166.436" y="84.040">U</text>
      <text x="151.451" y="84.713">G</text>
      <text x="136.466" y="85.386">U</text>
      <text x="126.584" y="67.948">U</text>
      <text x="109.145" y="58.065">G</text>
      <text x="109.818" y="43.081">G</text>
      <text x="110.491" y="28.096">U</text>
      <text x="111.164" y="13.111">C</text>
      <text x="111.837" y="-1.874">U</text>
      <text x="112.510" y="-16.859">U</text>
      <text x="115.563" y="-35.999">A</text>
    </g>
  </g>
</svg>
