%!PS-Adobe-3.0 EPSF-3.0
%%Creator: PS_dot.c,v 1.38 2007/02/02 15:18:13 ivo Exp $, ViennaRNA-1.8.2
%%CreationDate: Thu Apr 11 11:08:17 2013
%%Title: RNA Secondary Structure Plot
%%BoundingBox: 66 210 518 662
%%DocumentFonts: Helvetica
%%Pages: 1
%%EndComments

%Options: 
% to switch off outline pairs of sequence comment or
% delete the appropriate line near the end of the file

%%BeginProlog
/RNAplot 100 dict def
RNAplot begin
/fsize  14 def
/outlinecolor {0.2 setgray} bind def
/paircolor    {0.2 setgray} bind def
/seqcolor     {0   setgray} bind def
/cshow  { dup stringwidth pop -2 div fsize -3 div rmoveto show} bind def
/min { 2 copy gt { exch } if pop } bind def
/max { 2 copy lt { exch } if pop } bind def
/drawoutline {
  gsave outlinecolor newpath
  coor 0 get aload pop 0.8 0 360 arc % draw 5' circle of 1st sequence
  currentdict /cutpoint known        % check if cutpoint is defined
  {coor 0 cutpoint getinterval
   {aload pop lineto} forall         % draw outline of 1st sequence
   coor cutpoint get aload pop
   2 copy moveto 0.8 0 360 arc       % draw 5' circle of 2nd sequence
   coor cutpoint coor length cutpoint sub getinterval
   {aload pop lineto} forall}        % draw outline of 2nd sequence
  {coor {aload pop lineto} forall}   % draw outline as a whole
  ifelse
  stroke grestore
} bind def
/drawpairs {
  paircolor
  0.7 setlinewidth
  [9 3.01] 9 setdash
  newpath
  pairs {aload pop
     coor exch 1 sub get aload pop moveto
     coor exch 1 sub get aload pop lineto
  } forall
  stroke
} bind def
% draw bases
/drawbases {
  [] 0 setdash
  seqcolor
  0
  coor {
    aload pop moveto
    dup sequence exch 1 getinterval cshow
    1 add
  } forall
  pop
} bind def

/init {
  /Helvetica findfont fsize scalefont setfont
  1 setlinejoin
  1 setlinecap
  0.8 setlinewidth
  72 216 translate
  % find the coordinate range
  /xmax -1000 def /xmin 10000 def
  /ymax -1000 def /ymin 10000 def
  coor {
      aload pop
      dup ymin lt {dup /ymin exch def} if
      dup ymax gt {/ymax exch def} {pop} ifelse
      dup xmin lt {dup /xmin exch def} if
      dup xmax gt {/xmax exch def} {pop} ifelse
  } forall
  /size {xmax xmin sub ymax ymin sub max} bind def
  72 6 mul size div dup scale
  size xmin sub xmax sub 2 div size ymin sub ymax sub 2 div
  translate
} bind def
end
%%EndProlog
RNAplot begin
% data start here
/sequence (\
ACUCUAAUAGUUUAUGAAAAACAUUGGUCUUGUAAACCAAAAACUGAAGCCCUCCACCCUUCUUAGAGUA\
) def
/coor [
[112.329 225.157]
[111.666 210.172]
[111.002 195.186]
[110.339 180.201]
[109.675 165.216]
[109.012 150.230]
[108.348 135.245]
[91.950 133.539]
[78.801 124.980]
[71.403 112.055]
[56.583 114.369]
[41.762 116.683]
[26.942 118.996]
[16.360 131.055]
[0.342 130.156]
[-8.824 116.989]
[-4.107 101.655]
[10.874 95.917]
[24.628 104.176]
[39.449 101.862]
[54.269 99.549]
[69.090 97.235]
[73.593 83.697]
[83.678 73.605]
[79.106 59.319]
[74.534 45.033]
[69.962 30.746]
[65.390 16.460]
[50.849 10.706]
[43.455 -3.073]
[46.698 -18.370]
[59.047 -27.964]
[74.672 -27.323]
[86.194 -16.751]
[88.174 -1.239]
[79.676 11.888]
[84.248 26.174]
[88.820 40.461]
[93.392 54.747]
[97.964 69.033]
[107.878 69.090]
[117.534 72.324]
[125.916 78.573]
[132.086 87.345]
[135.291 97.863]
[135.052 109.126]
[150.019 110.121]
[164.986 111.116]
[179.953 112.111]
[189.053 99.653]
[203.452 94.114]
[218.555 97.262]
[229.542 108.091]
[232.909 123.147]
[227.579 137.625]
[215.255 146.905]
[199.868 148.026]
[186.329 140.630]
[178.958 127.078]
[163.991 126.083]
[149.024 125.088]
[134.057 124.093]
[123.334 134.582]
[123.997 149.567]
[124.661 164.552]
[125.324 179.538]
[125.988 194.523]
[126.651 209.508]
[127.315 224.494]
[130.355 243.635]
] def
/pairs [
[1 69]
[2 68]
[3 67]
[4 66]
[5 65]
[6 64]
[7 63]
[10 22]
[11 21]
[12 20]
[13 19]
[24 40]
[25 39]
[26 38]
[27 37]
[28 36]
[46 62]
[47 61]
[48 60]
[49 59]
] def

init

% switch off outline pairs or bases by removing these lines
drawoutline
drawpairs
drawbases
% show it
showpage
end
%%EOF
